{
  "project_info": {
    "project_number": "993986086713",
    "firebase_url": "https://inspector-dcce2.firebaseio.com",
    "project_id": "inspector-dcce2",
    "storage_bucket": "inspector-dcce2.appspot.com"
  },
  "client": [
    {
      "client_info": {
        "mobilesdk_app_id": "1:993986086713:android:63d24c069e583ae5e64ae8",
        "android_client_info": {
          "package_name": "com.inspector"
        }
      },
      "oauth_client": [
        {
          "client_id": "993986086713-605i9rlsm42hm8aa21c9n9r44to6vuq2.apps.googleusercontent.com",
          "client_type": 3
        }
      ],
      "api_key": [
        {
          "current_key": "AIzaSyAo6rZ_hO5rFSX2BSUefJeDkykH1q6pERc"
        }
      ],
      "services": {
        "appinvite_service": {
          "other_platform_oauth_client": [
            {
              "client_id": "993986086713-605i9rlsm42hm8aa21c9n9r44to6vuq2.apps.googleusercontent.com",
              "client_type": 3
            }
          ]
        }
      }
    }
  ],
  "configuration_version": "1"
}